<?xml version="1.0" encoding="utf-8"?>
<!-- Generator: Adobe Illustrator 19.2.1, SVG Export Plug-In . SVG Version: 6.00 Build 0)  -->
<svg version="1.1" id="Layer_1" xmlns="http://www.w3.org/2000/svg" xmlns:xlink="http://www.w3.org/1999/xlink" x="0px" y="0px"
	 viewBox="0 0 144 31" style="enable-background:new 0 0 144 31;" xml:space="preserve">
<style type="text/css">
	.st0{clip-path:url(#SVGID_2_);fill:#595655;}
	.st1{clip-path:url(#SVGID_2_);fill:#7FC4C1;}
</style>
<g>
	<defs>
		<rect id="SVGID_1_" y="0.567" width="143.964" height="30.016"/>
	</defs>
	<clipPath id="SVGID_2_">
		<use xlink:href="#SVGID_1_"  style="overflow:visible;"/>
	</clipPath>
	<path class="st0" d="M143.964,8.375c0,0.532-0.418,0.949-0.961,0.949c-0.538,0-0.967-0.417-0.967-0.949
		c0-0.521,0.429-0.939,0.967-0.939C143.546,7.436,143.964,7.854,143.964,8.375 M142.276,8.375c0,0.417,0.309,0.749,0.732,0.749
		c0.412,0,0.716-0.332,0.716-0.743c0-0.418-0.304-0.756-0.721-0.756C142.585,7.625,142.276,7.963,142.276,8.375 M142.841,8.821
		h-0.234V7.929c0.117-0.018,0.221-0.029,0.375-0.029c0.177,0,0.265,0.029,0.334,0.069c0.051,0.04,0.081,0.114,0.081,0.206
		c0,0.103-0.087,0.183-0.204,0.217v0.011c0.117,0.035,0.156,0.08,0.185,0.206c0.029,0.143,0.059,0.212,0.082,0.212h-0.234
		c-0.029,0-0.046-0.107-0.075-0.216c-0.017-0.103-0.074-0.136-0.194-0.136h-0.116V8.821z M142.841,8.352h0.122
		c0.12,0,0.217-0.049,0.217-0.146c0-0.086-0.072-0.147-0.209-0.147c-0.058,0-0.13,0.001-0.13,0.007V8.352z"/>
	<path class="st1" d="M124.822,7.844c-1.319-0.195-2.667-0.296-4.039-0.296c-1.43,0-3.031,0.096-4.184,0.322
		c-1.154,0.226-1.905,1.083-2.064,2.211c-0.311,1.784-0.473,3.62-0.473,5.498c0,1.877,0.162,3.716,0.473,5.499
		c0.157,1.099,0.943,1.993,1.983,2.193c1.04,0.199,2.863,0.334,4.265,0.334c1.378,0,3.131-0.115,4.246-0.33
		c1.115-0.215,1.895-1.136,2.02-2.285c0.3-1.756,0.458-3.564,0.458-5.411c0-1.845-0.158-3.65-0.458-5.403
		c-0.114-1.085-0.854-1.971-1.83-2.25C125.144,7.905,124.886,7.853,124.822,7.844 M125.553,19.901
		c-0.095,0.919-0.675,1.659-1.539,1.828c-0.864,0.168-2.181,0.263-3.231,0.263c-1.067,0-3.246-0.268-3.246-0.268
		c-0.785-0.173-1.393-0.878-1.508-1.759c-0.236-1.423-0.36-2.889-0.36-4.386c0-1.496,0.124-2.96,0.359-4.38
		c0.109-0.851,0.676-1.537,1.417-1.744c0.051-0.014,0.209-0.04,0.303-0.053c0.665-0.096,1.686-0.225,3.035-0.24
		c1.387-0.016,3.202,0.259,3.202,0.259c0.835,0.159,1.485,0.918,1.57,1.862c0.226,1.394,0.346,2.829,0.346,4.296
		C125.901,17.054,125.781,18.498,125.553,19.901"/>
	<path class="st1" d="M112.094,0.568h-0.817c-0.451,0-0.847,0.399-0.847,0.919v22.06h0.848c0.452,0,0.817-0.411,0.817-0.93
		L112.094,0.568z"/>
	<path class="st1" d="M106.038,7.885c0,0-1.91-0.326-4.247-0.334c-1.25-0.005-2.485,0.086-3.671,0.249V7.798
		c0,0-0.233,0.013-0.866,0.172c-0.633,0.159-1.344,0.873-1.344,2.302l-0.007-0.02L95.9,30.568h0.818
		c0.451,0,0.855-0.379,0.855-0.899v-6.125c0,0.001-0.032,0.003-0.028,0.003h6.066c1.211,0,2.328-0.159,2.328-0.159
		c1.069-0.185,1.922-1.184,2.08-2.313c0.311-1.783,0.474-3.619,0.474-5.497c0-1.878-0.163-3.717-0.474-5.5
		C107.864,8.98,107.063,8.102,106.038,7.885 M106.528,19.958c-0.116,0.908-0.718,1.659-1.569,1.841
		c-0.593,0.167-1.608,0.117-2.383,0.131c-0.002,0.002-5.038,0.006-5.038,0.006s-0.004-11.348-0.004-11.588
		c0-0.559,0.615-0.839,1.006-0.921c0,0,1.456-0.21,3.231-0.264c1.775-0.054,3.247,0.268,3.247,0.268
		c0.784,0.174,1.394,0.878,1.509,1.762c0.235,1.421,0.359,2.887,0.359,4.385C106.886,17.074,106.762,18.537,106.528,19.958"/>
	<path class="st1" d="M140.952,7.548c0,0-1.056,0-1.142,0c-0.347,0-0.681,0.247-0.815,0.637l-4.451,12.865l-4.447-12.857
		c-0.135-0.39-0.469-0.636-0.815-0.636c-0.086,0-1.142,0.001-1.142,0.001l5.535,16.007l-0.896,2.59
		c-0.636,1.653-2.191,2.841-4.069,2.841c-0.203,0-0.408,0.004-0.59,0v1.07c0,0.399,0.25,0.517,0.93,0.517
		c2.553-0.149,4.606-1.839,5.366-4.119h-0.004L140.952,7.548z"/>
	<path class="st1" d="M79.107,0.568H78.29c-0.452,0-0.777,0.432-0.777,0.951v6.162c-0.091-0.052-0.55-0.513-1.194-0.53
		c-0.41-0.011-3.311-0.012-3.629-0.012l0.429,1.51c0.096,0.326,0.365,0.647,0.72,0.661c0,0,1.262,0.018,2.139,0.023
		c0.878,0.006,1.535,1.148,1.535,2.084v8.365c-0.091,1.156-0.433,1.855-1.131,2.131c-0.145,0.057-0.268,0.074-0.322,0.076
		c-0.38,0.011-1.569,0.016-2.247,0.019c-0.214,0.022-0.317,0.121-0.435,0.359c-0.066,0.133-0.636,1.54-0.636,1.54
		c0.184,0,3.449,0.022,3.632,0.022c0.182,0,0.255-0.004,0.712-0.103c1.064-0.23,1.731-1.318,1.886-2.416
		c0.129-0.743,0.122-1.646,0.134-2.345l0.002-0.005L79.107,0.568z"/>
	<path class="st1" d="M94.154,11.626c0-2.017-1.505-3.675-3.329-3.874V7.743c-1.003-0.115-2.071-0.174-3.12-0.174
		c-1.431,0-3.107,0.089-4.191,0.322c-1.083,0.234-1.774,0.99-2.065,2.212c-0.419,1.76-0.471,3.565-0.487,5.519
		c-0.018,2.136,0.456,5.31,0.485,5.477c0.15,1.064,0.941,1.97,1.885,2.171c0.943,0.201,1.95,0.25,1.95,0.25
		c0.749,0.065,1.531,0.101,2.26,0.104v0.004c0,0,1.162,0.01,1.388,0.01c0.193,0,2.716-0.06,3.536-0.134v-0.002
		c0.456-0.048,0.754-0.387,0.754-0.798l0.012-0.846c-1.052,0.058-4.605,0.156-5.543,0.156c-0.938,0-2.382-0.002-3.241-0.268
		c-0.859-0.266-1.393-0.879-1.509-1.761c-0.01-0.063-0.161-1.412-0.214-2.091l8.829-2.545v-0.002
		C93.014,14.857,94.154,13.378,94.154,11.626 M90.977,13.802L90.977,13.802l-7.198,2.079l-1.176,0.341
		c-0.01-0.219-0.016-0.428-0.022-0.621c0-1.497,0.124-2.961,0.358-4.381c0.117-0.908,0.757-1.63,1.573-1.78
		c0,0,2.095-0.257,3.183-0.257c1.095,0,2.828,0.138,3.222,0.26c0.394,0.122,0.779,0.372,0.831,0.418l0.001-0.001
		c0.495,0.412,0.813,1.05,0.813,1.766C92.562,12.668,91.889,13.544,90.977,13.802"/>
	<path class="st0" d="M62.509,7.224h-0.001c-0.04,0-4.071-0.187-5.625,0.038l-0.632,0.109c-1.1,0.262-1.927,1.259-2.112,2.55
		c-0.157,0.899-0.152,1.246-0.152,2.099v0.128c0,0.204-0.003,11.307-0.002,11.763h1.188c0.318,0,0.616-0.134,0.841-0.383
		c0.223-0.247,0.346-0.574,0.346-0.923c0.001-0.457,0.02-11.204,0.034-11.374c0.048-0.354,0.19-0.678,0.412-0.938
		c0.178-0.21,0.466-0.499,0.917-0.596c0.409-0.087,1.902-0.097,2.891-0.104h0.048h0.014l3.067,0.165V8.355
		C63.743,7.707,63.173,7.224,62.509,7.224"/>
	<path class="st0" d="M50.894,8.554c-0.677-0.711-1.471-1.406-3.054-1.406c-0.046-0.002-6.276-0.015-6.626,0.011
		c-0.419,0.032-0.724,0.172-0.764,0.192l-0.007,0.003c-0.463,0.228-0.762,0.667-0.762,1.118L39.68,9.773
		c0.216-0.017,3.187-0.243,4.337-0.243c0.207,0,0.422-0.001,0.639-0.001c1.051-0.004,2.139-0.007,2.774,0.062
		c0.005,0.001,0.395,0.059,0.882,0.194c0.749,0.233,1.272,0.976,1.272,1.806c0,0.854-0.541,1.603-1.316,1.82l-7.519,2.191
		c-0.939,0.331-1.383,0.758-1.874,1.431c-0.512,0.703-0.761,1.54-0.761,2.56c0,1.01,0.344,1.989,0.967,2.758
		c0.546,0.674,1.264,1.147,2.077,1.367l0.003,0.002c0.037,0.009,0.642,0.152,1.064,0.174c0.829,0.043,5.854,0.018,7.747,0.009
		c0.362-0.002,0.606-0.003,0.675-0.003c0.465,0,0.76-0.244,0.926-0.448c0.199-0.242,0.308-0.556,0.308-0.883
		c0,0,0.004-10.919,0.004-10.978C51.885,10.266,51.552,9.244,50.894,8.554 M49.519,15.504v6.082
		c-0.547,0.018-5.061,0.045-5.58,0.045h-0.007c-0.018,0-0.047,0.003-0.065,0.003c-0.859,0-1.936-0.142-2.174-0.256
		c-0.74-0.23-1.256-0.964-1.255-1.785c0-0.866,0.57-1.61,1.361-1.81C42.104,17.693,49.063,15.627,49.519,15.504v-0.016l-0.007-0.017
		l0.007,0.017V15.504z"/>
	<path class="st0" d="M11.127,15.606c-0.564-0.177-7.442-2.169-7.511-2.189c-0.775-0.218-1.317-0.966-1.317-1.819
		c0-0.83,0.511-1.556,1.272-1.807c0.658-0.218,2.293-0.246,2.966-0.248l2.302-0.007c0.023,0,2.243,0.066,2.972,0.114
		c0.222,0.014,0.94,0.103,1.122,0.115l-0.002-1.35c-0.026-0.475-0.265-0.828-0.674-1.022c-0.447-0.211-0.643-0.247-1.288-0.245
		c-0.109,0-0.389,0-0.774-0.001C8.47,7.143,4.43,7.137,3.988,7.202C3.138,7.326,2.764,7.485,2.76,7.486
		C1.851,7.812,1.152,8.341,0.684,9.058C0.23,9.752,0,10.606,0,11.598c0,0.988,0.26,1.875,0.751,2.565
		c0.425,0.594,0.919,0.959,1.888,1.395c0.91,0.409,7.402,2.191,7.467,2.209l0.005,0.002c0.799,0.2,1.359,0.953,1.359,1.83
		c0,0.569-0.269,1.125-0.736,1.526c-0.194,0.166-0.495,0.278-0.893,0.333c-0.369,0.05-0.931,0.118-1.516,0.154
		C7.7,21.65,4.074,21.658,3.386,21.658c-0.435,0-0.721-0.021-1.118-0.051c-0.157-0.012-0.318-0.026-0.529-0.04
		c-0.22-0.015-0.822-0.092-0.914-0.103v1.262v0.001l0.001,0.031c0.023,0.432,0.244,0.824,0.628,1.007
		c0.002,0.001,0.005,0.007,0.007,0.008l0.048,0.019c0.221,0.069,0.449,0.095,0.452,0.096c0.416,0.033,7.304,0.004,7.952-0.019
		c0.465-0.017,0.764-0.127,0.796-0.14l0.007-0.002c0.818-0.222,1.54-0.695,2.087-1.371c0.623-0.768,0.966-1.747,0.966-2.757
		c0-0.943-0.288-1.837-0.833-2.585C12.482,16.392,11.705,15.787,11.127,15.606"/>
	<path class="st0" d="M16.299,8.403c-0.426,0.455-0.698,1.028-0.787,1.655c-0.024,0.138-0.141,13.397-0.145,13.853h1.188
		c0.318,0,0.617-0.137,0.842-0.385c0.223-0.25,0.346-0.578,0.346-0.926l-0.001-11.353c0.031-0.415,0.158-0.736,0.401-1.01
		c0.235-0.267,0.465-0.4,0.879-0.509c0.011-0.004,0.316-0.114,1.735-0.145c0.02,0,1.944-0.014,2.403,0.039
		c0.499,0.057,0.981,0.468,1.166,0.678c0.228,0.257,0.416,0.508,0.431,0.94l-0.014,12.671h1.189c0.317,0,0.616-0.131,0.841-0.379
		c0.223-0.25,0.346-0.576,0.346-0.923l-0.014-11.351c0.04-0.513,0.199-0.707,0.4-0.954c0.212-0.259,0.745-0.526,1.062-0.584
		c0.004-0.001,0.519-0.137,1.355-0.121c0.221,0.004,0.703,0,1.129-0.004c0.259-0.002,0.504-0.004,0.664-0.004
		c0.483,0,0.852,0.094,1.12,0.175c0.488,0.149,0.591,0.267,0.779,0.482c0.015,0.017,0.031,0.035,0.047,0.054
		c0.21,0.236,0.35,0.51,0.398,0.955l-0.016,12.654h1.189c0.314,0,0.62-0.152,0.841-0.397c0.223-0.249,0.346-0.583,0.346-0.931
		l-0.07-11.56c0-0.489-0.04-0.844-0.06-0.963c-0.117-0.829-0.355-1.428-0.707-1.805c-0.43-0.46-0.937-0.74-1.554-0.857l-0.01-0.002
		l-0.001-0.001l-0.136-0.033c-0.025-0.005-0.045-0.012-0.063-0.016c-0.012-0.002-0.021-0.005-0.03-0.007
		c-0.369-0.066-1.121-0.183-1.86-0.183c-0.017,0-0.033,0-0.05,0c-0.267-0.019-2.144,0.003-2.163,0.004
		c-0.013,0-1.307,0.045-2.557,0.384c-0.64,0.173-0.897,0.292-1.25,0.578L25.9,8.127l-0.007-0.005
		c-0.36-0.291-0.613-0.447-1.083-0.667c-0.599-0.281-1.616-0.305-2.607-0.305c-0.021,0-2.075-0.019-2.448-0.003l-0.018,0.001
		c-0.706,0.031-0.999,0.044-1.857,0.27C17.291,7.573,16.773,7.895,16.299,8.403"/>
	<path class="st0" d="M71.897,9.318c-0.041-0.144-0.366-1.296-0.444-1.558l-0.009-0.03c-0.079-0.269-0.161-0.547-0.703-0.574
		c-0.108-0.005-0.629-0.004-1.01-0.004c-0.202,0.001-0.376,0.001-0.44,0c-0.013,0-0.025,0-0.037,0c-0.546,0-1.006,0.134-1.365,0.398
		c-0.026,0.02-0.035,0.026-0.043,0.028l-0.013,0.003l0.001-5.691c0-0.348-0.123-0.682-0.347-0.929
		c-0.224-0.249-0.523-0.393-0.841-0.393h-1.187c0,0.547-0.003,19.017-0.003,19.36c0,1.243,0.205,2.221,0.607,2.899
		c0.419,0.706,1.071,1.098,1.789,1.077c0.8-0.025,1.902-0.011,2.339-0.005c0.016,0,0.025,0.001,0.027,0.001c0.023,0,0.047,0,0.071,0
		c0.179,0.001,0.381,0.002,0.557-0.067c0.232-0.092,0.376-0.236,0.451-0.453l0.001-0.003l0.529-1.384
		c-0.224-0.001-2.639-0.004-2.913-0.004c-0.334,0-0.613-0.267-0.749-0.426c-0.388-0.452-0.35-1.168-0.332-1.595
		c0.004-0.082,0.014-0.153,0.014-0.212v-8.313c0-0.536,0.056-1.213,0.546-1.704c0.203-0.203,0.515-0.436,1.16-0.436
		C70.212,9.303,71.728,9.317,71.897,9.318"/>
</g>
</svg>
