<?xml version="1.0" encoding="utf-8"?>
<!-- Generator: Adobe Illustrator 19.2.1, SVG Export Plug-In . SVG Version: 6.00 Build 0)  -->
<svg version="1.1" id="Layer_1" xmlns="http://www.w3.org/2000/svg" xmlns:xlink="http://www.w3.org/1999/xlink" x="0px" y="0px"
	 viewBox="0 0 622 3" style="enable-background:new 0 0 622 3;" xml:space="preserve">
<style type="text/css">
	.st0{fill:#7EC3C0;}
	.st1{fill:#FFFFFF;}
	.st2{clip-path:url(#SVGID_2_);fill:none;stroke:#FFFFFF;stroke-width:0.2;}
	.st3{fill:#595655;}
</style>
<rect x="121" y="0" class="st0" width="501" height="3"/>
<polygon class="st1" points="2,0 2,3 145.3,3 146,1.5 145.3,0 "/>
<g>
	<defs>
		<rect id="SVGID_1_" y="-0.1" width="622" height="3.2"/>
	</defs>
	<clipPath id="SVGID_2_">
		<use xlink:href="#SVGID_1_"  style="overflow:visible;"/>
	</clipPath>
	<polygon class="st2" points="2,0 2,3 145.3,3 146,1.5 145.3,0 	"/>
</g>
<polygon class="st3" points="0,0 0,3 143.3,3 144,1.5 143.3,0 "/>
</svg>
